{
  "name": "WPify Support",
  "version": "WPIFY_VERSION",
  "download_url": "https://wpify.io/downloads/wpify-support.zip",
  "homepage": "https://wpify.io/support-plugin/",
  "requires": "4.9",
  "tested": "6.5",
  "author": "WPify",
  "author_homepage": "https://wpify.io/",
  "sections": {
	"description": "By activating this plugin, you will provide access to WPify support with email support@wpify.io. To remove the access, deactivate the plugin.",
	"installation": "Upload the plugin files to the `/wp-content/plugins/wpify-support` directory, or install the plugin through the WordPress plugins screen directly. After activation of the plugin, WPify Support will gain full access to your site."
  },
  "icons": {
	"1x": "https://gitlab.com/wpify/wpify-support/-/raw/master/assets/icon-128x128.png",
	"2x": "https://gitlab.com/wpify/wpify-support/-/raw/master/assets/icon-256x256.png",
	"3x": "https://gitlab.com/wpify/wpify-support/-/raw/master/assets/icon-512x512.png"
  }
}
